<?xml version="1.0" encoding="utf-8"?>
<!-- Generator: Adobe Illustrator 15.0.0, SVG Export Plug-In . SVG Version: 6.00 Build 0)  -->
<!DOCTYPE svg PUBLIC "-//W3C//DTD SVG 1.1//EN" "http://www.w3.org/Graphics/SVG/1.1/DTD/svg11.dtd">
<svg version="1.1" id="Layer_1" xmlns="http://www.w3.org/2000/svg" xmlns:xlink="http://www.w3.org/1999/xlink" x="0px" y="0px"
	 width="280px" height="45px" viewBox="50 15 280 45" enable-background="new 50 15 280 45" xml:space="preserve">
<g>
	<polygon fill="#E6E6E6" points="66.894,20.012 56.667,54.988 313.107,54.988 323.332,20.012 	"/>
	<g>
		<path fill="#414141" d="M147.086,40.057h0.803c-0.166,3.684,2.049,5.539,4.597,5.539c2.77,0,4.182-2.05,4.182-4.016
			c0-2.216-1.33-3.379-3.545-4.486c-2.243-1.08-4.016-2.438-4.016-5.041c0-2.326,1.523-5.483,6.37-5.483
			c1.717,0,3.767,0.471,4.958,1.412l-0.997,3.878h-0.803c0.333-2.853-0.692-4.32-3.351-4.32c-2.409,0-3.85,1.551-3.85,3.517
			c0,2.105,1.966,3.047,3.573,3.878c2.797,1.439,4.154,3.019,4.154,5.511c0,2.963-1.634,6.065-7.007,6.12
			c-2.022,0-4.708-0.83-5.788-2.271L147.086,40.057z"/>
		<path fill="#414141" d="M162.094,33.022l5.041-0.775l0.138,0.139l-2.659,10.219c-0.415,1.606-0.194,2.438,0.692,2.438
			c2.299,0,4.708-3.684,5.927-6.48c0.72-1.689,1.163-3.157,1.966-5.982l2.465-0.332l-2.963,11.299
			c-0.222,0.858-0.222,1.496,0.36,1.496c0.775,0,1.994-1.994,2.548-2.936l0.665,0.415c-0.969,2.05-2.631,3.96-4.625,3.96
			c-1.468,0-1.8-1.135-1.274-2.99l0.914-3.157h-0.056c-1.662,3.212-4.57,6.147-7.229,6.147c-2.215,0-2.437-1.8-1.855-4.016
			l1.911-7.311c0.222-0.859,0.249-1.274-0.416-1.33l-1.717-0.138L162.094,33.022z"/>
		<path fill="#414141" d="M185.548,32.247c2.077,0,3.572,1.052,3.572,2.465c0,0.914-1.107,1.551-1.772,1.551
			c-0.499,0-0.748-0.332-0.803-0.831c-0.167-1.661-0.776-2.216-1.662-2.216c-2.548,0-4.625,4.681-4.625,8.281
			c0,1.966,0.416,3.628,2.438,3.628c1.855,0,3.489-1.967,4.431-3.24l0.665,0.525c-1.911,3.186-4.265,4.071-6.314,4.071
			c-1.938,0-3.96-1.052-3.96-4.431C177.517,37.509,180.619,32.247,185.548,32.247z"/>
		<path fill="#414141" d="M191.723,35.404c1.523-1.884,3.572-3.157,6.064-3.157c2.271,0,3.434,1.302,3.434,2.77
			c0,0.775-0.193,1.689-1.162,2.658c-1.191,1.107-3.213,2.216-7.865,3.157c-0.027,0.194-0.027,0.305-0.027,0.443
			c0,2.188,0.58,3.85,2.52,3.85c2.076,0,3.572-1.855,4.57-3.157l0.637,0.554c-1.885,3.074-4.32,3.96-6.342,3.96
			c-1.607,0-4.128-0.664-4.128-4.542C189.423,39.613,190.254,37.204,191.723,35.404z M198.617,34.851
			c0-0.97-0.637-1.635-1.605-1.635c-2.215,0-4.293,3.324-4.764,6.675C196.928,38.894,198.617,36.789,198.617,34.851z"/>
		<path fill="#414141" d="M202.41,42.355c0.471,0,0.719,0.305,0.885,0.831c0.443,1.468,1.469,2.326,2.494,2.326
			c1.162,0,1.994-0.775,1.994-2.077c0-1.08-0.721-2.299-1.912-3.24c-1.439-1.163-2.438-2.438-2.438-3.877
			c0-2.243,1.662-4.071,4.486-4.071c2.467,0,3.518,1.302,3.518,2.16s-0.775,1.273-1.328,1.273c-0.416,0-0.637-0.221-0.775-0.554
			c-0.582-1.302-1.303-1.911-2.217-1.911c-1.023,0-1.717,0.914-1.717,1.801c0,0.775,0.305,1.689,1.967,3.046
			c1.855,1.523,2.547,2.714,2.547,4.237c0,2.271-1.799,4.182-4.791,4.182c-2.631,0-4.154-1.439-4.154-2.631
			C200.969,43.103,201.578,42.355,202.41,42.355z"/>
		<path fill="#414141" d="M220.438,32.247c2.242,0,4.957,1.024,4.957,4.847c0,1.495-0.471,3.849-1.744,5.843
			c-1.303,2.05-3.242,3.545-6.26,3.545c-3.49,0-5.096-2.049-5.096-5.013C212.295,39.087,213.873,32.247,220.438,32.247z
			 M217.473,45.513c3.795,0,5.234-7.423,5.234-9.389c0-1.717-0.609-2.908-2.299-2.908c-3.654,0-5.428,6.37-5.428,9.361
			C214.98,44.543,215.867,45.513,217.473,45.513z"/>
		<path fill="#414141" d="M227.496,42.355c0.471,0,0.719,0.305,0.887,0.831c0.441,1.468,1.467,2.326,2.492,2.326
			c1.162,0,1.994-0.775,1.994-2.077c0-1.08-0.721-2.299-1.912-3.24c-1.439-1.163-2.438-2.438-2.438-3.877
			c0-2.243,1.662-4.071,4.488-4.071c2.465,0,3.516,1.302,3.516,2.16s-0.775,1.273-1.328,1.273c-0.416,0-0.637-0.221-0.775-0.554
			c-0.582-1.302-1.303-1.911-2.217-1.911c-1.023,0-1.717,0.914-1.717,1.801c0,0.775,0.305,1.689,1.967,3.046
			C234.309,39.586,235,40.776,235,42.3c0,2.271-1.799,4.182-4.791,4.182c-2.631,0-4.154-1.439-4.154-2.631
			C226.055,43.103,226.664,42.355,227.496,42.355z"/>
	</g>
</g>
</svg>
