<?xml version="1.0" encoding="utf-8"?>
<!-- Generator: Adobe Illustrator 15.0.0, SVG Export Plug-In . SVG Version: 6.00 Build 0)  -->
<!DOCTYPE svg PUBLIC "-//W3C//DTD SVG 1.1//EN" "http://www.w3.org/Graphics/SVG/1.1/DTD/svg11.dtd">
<svg version="1.1" id="Layer_1" xmlns="http://www.w3.org/2000/svg" xmlns:xlink="http://www.w3.org/1999/xlink" x="0px" y="0px"
	 width="280px" height="45px" viewBox="50 15 280 45" enable-background="new 50 15 280 45" xml:space="preserve">
<g>
	<polygon fill="#E6E6E6" points="66.894,20.012 56.667,54.988 313.107,54.988 323.332,20.012 	"/>
	<g>
		<path fill="#414141" d="M129.075,39.057h0.803c-0.166,3.684,2.049,5.539,4.597,5.539c2.77,0,4.182-2.051,4.182-4.016
			c0-2.217-1.33-3.379-3.545-4.487c-2.243-1.08-4.016-2.437-4.016-5.04c0-2.326,1.523-5.484,6.37-5.484
			c1.717,0,3.767,0.471,4.958,1.412l-0.997,3.878h-0.803c0.333-2.853-0.692-4.32-3.351-4.32c-2.409,0-3.85,1.551-3.85,3.517
			c0,2.105,1.966,3.047,3.573,3.878c2.797,1.44,4.154,3.019,4.154,5.511c0,2.963-1.634,6.066-7.007,6.121
			c-2.022,0-4.708-0.83-5.788-2.271L129.075,39.057z"/>
		<path fill="#414141" d="M145.273,34.403c1.523-1.884,3.573-3.157,6.065-3.157c2.271,0,3.434,1.302,3.434,2.77
			c0,0.775-0.194,1.689-1.163,2.658c-1.191,1.107-3.213,2.217-7.866,3.158c-0.027,0.193-0.027,0.305-0.027,0.443
			c0,2.188,0.582,3.85,2.52,3.85c2.077,0,3.573-1.855,4.57-3.158l0.637,0.555c-1.883,3.074-4.32,3.959-6.342,3.959
			c-1.606,0-4.126-0.664-4.126-4.541C142.975,38.613,143.806,36.203,145.273,34.403z M152.169,33.85
			c0-0.969-0.637-1.635-1.606-1.635c-2.215,0-4.292,3.324-4.763,6.676C150.48,37.893,152.169,35.788,152.169,33.85z"/>
		<path fill="#414141" d="M158.121,44.014v-0.055c-1.135-0.527-1.966-1.164-1.966-2.078c0-1.107,1.662-1.717,2.521-2.076v-0.057
			c-0.831-0.305-2.327-1.357-2.327-3.406c0-1.967,1.357-5.096,5.899-5.096c1.357,0,2.714,0.36,3.434,0.831l4.016-1.108l0.166,0.25
			l-0.914,1.744l-2.326,0.332c0.36,0.472,0.582,1.164,0.582,1.912c0,2.852-2.132,4.957-5.982,4.957c-0.416,0-0.942,0-1.496-0.084
			c-0.665,0.166-1.219,0.555-1.219,1.08c0,0.775,1.025,1.164,3.351,1.719c3.268,0.775,4.847,2.27,4.847,4.348
			c0,3.045-3.019,4.625-6.757,4.625c-3.518,0-6.093-1.58-6.093-4.045C153.856,45.51,156.238,44.346,158.121,44.014z M160.558,50.881
			c2.077,0,3.794-1.023,3.794-3.129c0-2.326-3.268-3.047-5.013-3.295c-1.136,0.166-2.936,1.107-2.936,3.102
			S158.149,50.881,160.558,50.881z M161.25,39.195c2.077,0,3.407-2.078,3.407-4.653c0-1.911-1.385-2.327-2.216-2.327
			c-2.631,0-3.489,2.854-3.489,4.598C158.952,38.197,159.783,39.195,161.25,39.195z"/>
		<path fill="#414141" d="M170.221,32.021l5.041-0.775l0.138,0.139l-2.659,10.219c-0.416,1.607-0.194,2.438,0.692,2.438
			c2.299,0,4.708-3.684,5.927-6.48c0.72-1.689,1.163-3.157,1.966-5.982l2.465-0.332l-2.963,11.299
			c-0.222,0.859-0.222,1.496,0.36,1.496c0.776,0,1.994-1.994,2.548-2.936l0.665,0.416c-0.969,2.049-2.631,3.959-4.625,3.959
			c-1.468,0-1.8-1.135-1.274-2.99l0.914-3.156h-0.055c-1.662,3.211-4.57,6.146-7.229,6.146c-2.215,0-2.437-1.799-1.855-4.016
			l1.911-7.311c0.222-0.859,0.249-1.273-0.416-1.33l-1.717-0.138L170.221,32.021z"/>
		<path fill="#414141" d="M188.829,34.154c0.194-0.887,0.249-1.273-0.416-1.33l-1.717-0.138l0.166-0.665l4.763-0.775l0.139,0.139
			l-1.246,4.598h0.057c1.494-2.992,3.406-4.736,4.957-4.736c0.885,0,1.273,0.471,1.246,1.219c0,0.803-0.609,1.717-1.303,1.717
			c-0.885,0-1.08-0.692-1.938-0.692c-1.053,0-2.438,2.382-3.435,6.011c-0.443,1.605-0.969,3.85-1.44,5.648l-2.382,0.332
			L188.829,34.154z"/>
		<path fill="#414141" d="M199.904,34.099c0.25-0.97,0.166-1.218-0.582-1.274l-1.578-0.138l0.166-0.665l5.041-0.775l0.139,0.139
			l-3.02,11.133c-0.25,0.887-0.277,1.523,0.277,1.523c0.775,0,1.994-1.967,2.492-2.936l0.664,0.389
			c-0.941,2.104-2.492,3.986-4.486,3.986c-1.496,0-1.855-1.135-1.439-2.713L199.904,34.099z M202.812,25.348
			c0.775,0,1.494,0.443,1.494,1.523c0,1.107-0.691,1.855-1.771,1.855c-0.83,0-1.523-0.527-1.523-1.551
			C201.012,26.289,201.621,25.348,202.812,25.348z"/>
		<path fill="#414141" d="M214.164,31.246c0.941,0,1.801,0.193,2.326,0.471l0.057-0.055l1.053-4.459
			c0.221-0.887,0.166-1.08-0.5-1.136l-1.66-0.167l0.166-0.637l4.93-0.664l0.139,0.139l-4.377,17.779
			c-0.221,0.887-0.277,1.523,0.277,1.523c0.775,0,1.994-1.967,2.492-2.936l0.664,0.389c-0.941,2.104-2.492,3.986-4.514,3.986
			c-1.412,0.029-1.828-1.107-1.273-3.074l0.914-3.295h-0.057c-1.633,2.963-4.098,6.369-7.283,6.369c-2.242,0-2.77-1.855-2.77-3.654
			C204.748,38.475,207.711,31.246,214.164,31.246z M208.875,44.041c1.467,0,3.295-2.076,4.625-4.236
			c1.412-2.299,2.326-4.902,2.742-7.035c-0.332-0.305-1.053-0.555-1.912-0.555c-4.43,0-6.84,6.842-6.84,9.832
			C207.49,43.293,207.988,44.041,208.875,44.041z"/>
		<path fill="#414141" d="M230.307,31.246c0.748,0,1.551,0.25,2.021,0.582l0.139-0.36h2.326l-2.936,11.05
			c-0.248,0.887-0.275,1.523,0.277,1.523c0.775,0,1.994-1.967,2.492-2.936l0.666,0.389c-0.941,2.104-2.492,3.986-4.598,3.986
			c-1.496,0-1.801-1.135-1.219-3.102l0.941-3.156h-0.055c-1.607,2.824-4.182,6.258-7.146,6.258c-1.883,0-2.658-1.633-2.658-3.295
			C220.559,38.529,223.717,31.246,230.307,31.246z M224.52,44.041c1.328,0,3.018-1.855,4.568-4.209
			c1.469-2.217,2.465-4.958,2.965-7.008c-0.416-0.387-1.025-0.609-1.689-0.609c-4.348,0-7.062,6.842-7.062,9.887
			C223.301,43.182,223.605,44.041,224.52,44.041z"/>
		<path fill="#414141" d="M245.398,31.246c0.941,0,1.799,0.193,2.326,0.471l0.055-0.055l1.053-4.459
			c0.223-0.887,0.166-1.08-0.498-1.136l-1.662-0.167l0.166-0.637l4.93-0.664l0.139,0.139l-4.375,17.779
			c-0.223,0.887-0.277,1.523,0.275,1.523c0.775,0,1.994-1.967,2.494-2.936l0.664,0.389c-0.941,2.104-2.492,3.986-4.514,3.986
			c-1.414,0.029-1.828-1.107-1.275-3.074l0.914-3.295h-0.055c-1.635,2.963-4.1,6.369-7.283,6.369c-2.244,0-2.77-1.855-2.77-3.654
			C235.982,38.475,238.945,31.246,245.398,31.246z M240.107,44.041c1.469,0,3.297-2.076,4.625-4.236
			c1.414-2.299,2.328-4.902,2.742-7.035c-0.332-0.305-1.053-0.555-1.91-0.555c-4.432,0-6.842,6.842-6.842,9.832
			C238.723,43.293,239.223,44.041,240.107,44.041z"/>
	</g>
</g>
</svg>
