<?xml version="1.0" encoding="utf-8"?>
<!-- Generator: Adobe Illustrator 15.0.0, SVG Export Plug-In . SVG Version: 6.00 Build 0)  -->
<!DOCTYPE svg PUBLIC "-//W3C//DTD SVG 1.1//EN" "http://www.w3.org/Graphics/SVG/1.1/DTD/svg11.dtd">
<svg version="1.1" id="Layer_1" xmlns="http://www.w3.org/2000/svg" xmlns:xlink="http://www.w3.org/1999/xlink" x="0px" y="0px"
	 width="500px" height="75px" viewBox="0 0 500 75" enable-background="new 0 0 500 75" xml:space="preserve">
<g>
	<path fill="#F1F1F2" d="M29.027,24.816c4.091-5.202,10.58-8.416,19.523-8.416c4.909,0,9.527,0.992,13.093,2.923l-2.104,9.117
		h-1.753c0.409-5.028-0.702-9.996-9.294-9.996c-13.969,0-18.587,13.676-18.587,23.03c0,10.346,5.203,15.08,12.275,15.08
		c6.079,0,6.838-1.462,7.247-3.156l2.163-8.826c0.527-2.047,0.118-2.688-0.993-2.804l-4.384-0.411l0.351-1.694h15.372l-0.351,1.694
		l-2.571,0.234c-0.995,0.116-1.345,0.994-1.812,2.98l-2.748,11.807c-3.332,1.227-8.124,2.221-12.392,2.221
		c-5.436,0-10.169-1.343-13.618-4.324c-3.04-2.63-4.968-7.365-4.968-13.208C23.475,35.922,25.17,29.725,29.027,24.816z"/>
	<path fill="#F1F1F2" d="M82.39,28.38c1.577,0,3.272,0.527,4.266,1.229l0.292-0.759h4.91l-6.196,23.321
		c-0.526,1.87-0.584,3.215,0.585,3.215c1.636,0,4.208-4.151,5.26-6.196l1.402,0.817c-1.987,4.443-5.26,8.419-9.702,8.419
		c-3.157,0-3.799-2.396-2.572-6.547l1.987-6.663h-0.117c-3.39,5.962-8.826,13.21-15.08,13.21c-3.975,0-5.612-3.45-5.612-6.954
		C61.815,43.753,68.479,28.38,82.39,28.38z M70.173,55.386c2.805,0,6.371-3.914,9.644-8.886c3.098-4.676,5.203-10.461,6.254-14.788
		c-0.876-0.817-2.162-1.285-3.565-1.285c-9.176,0-14.904,14.436-14.904,20.867C67.602,53.574,68.245,55.386,70.173,55.386z"/>
	<path fill="#F1F1F2" d="M93.844,53.515c6.313-6.429,13.094-13.21,20.516-20.691h-10.287c-2.747,0-3.682,1.812-5.553,5.204
		l-1.461-0.645c1.286-4.033,3.098-7.248,3.917-8.299h18.995l0.468,0.818c-7.073,6.898-13.736,13.852-20.224,20.633
		c1.52,0.176,3.565,0.938,5.494,1.637c2.164,0.82,4.793,1.693,6.605,1.693c2.63,0,4.033-3.504,5.495-7.128l1.636,0.407
		c-1.578,6.138-3.332,11.282-7.131,11.282c-2.748,0-5.495-1.111-8.592-2.34c-3.449-1.344-5.494-2.688-6.43-2.688
		c-0.468,0-0.76,0.41-0.76,1.052v2.571c0,0.995-1.929,1.404-2.748,1.404c-0.993,0-1.344-0.995-1.344-1.754
		C92.441,55.736,92.909,54.45,93.844,53.515z"/>
	<path fill="#F1F1F2" d="M126.107,35.044c3.214-3.974,7.54-6.664,12.8-6.664c4.793,0,7.248,2.749,7.248,5.846
		c0,1.636-0.409,3.564-2.455,5.612c-2.513,2.339-6.78,4.677-16.6,6.662c-0.058,0.41-0.058,0.644-0.058,0.938
		c0,4.617,1.227,8.122,5.318,8.122c4.385,0,7.541-3.914,9.645-6.662l1.344,1.17c-3.974,6.487-9.118,8.358-13.384,8.358
		c-3.391,0-8.709-1.404-8.709-9.587C121.255,43.93,123.009,38.845,126.107,35.044z M140.661,33.875c0-2.044-1.345-3.448-3.39-3.448
		c-4.676,0-9.06,7.015-10.054,14.087C137.096,42.409,140.661,37.967,140.661,33.875z"/>
	<path fill="#F1F1F2" d="M155.038,31.304h-4.852l0.644-2.221h4.734l0.76-2.864l5.67-4.5l0.701,0.409l-1.987,6.956h7.422
		l-0.642,2.221h-7.307l-5.202,21.275c-0.351,1.462-0.351,2.807,0.877,2.807c1.811,0,4.792-3.914,6.137-6.196l1.286,0.994
		c-2.337,4.382-6.079,8.242-10.754,8.242c-2.923,0-3.624-2.396-2.748-5.729L155.038,31.304z"/>
	<path fill="#F1F1F2" d="M186.249,28.38c1.578,0,3.273,0.527,4.266,1.229l0.292-0.759h4.91l-6.195,23.321
		c-0.527,1.87-0.585,3.215,0.584,3.215c1.636,0,4.209-4.151,5.26-6.196l1.403,0.817c-1.987,4.443-5.26,8.419-9.703,8.419
		c-3.156,0-3.798-2.396-2.571-6.547l1.987-6.663h-0.117c-3.391,5.962-8.826,13.21-15.08,13.21c-3.976,0-5.611-3.45-5.611-6.954
		C165.675,43.753,172.337,28.38,186.249,28.38z M174.032,55.386c2.806,0,6.372-3.914,9.645-8.886
		c3.097-4.676,5.203-10.461,6.253-14.788c-0.876-0.817-2.162-1.285-3.565-1.285c-9.177,0-14.905,14.436-14.905,20.867
		C171.461,53.574,172.104,55.386,174.032,55.386z"/>
	<path fill="#BBBDBF" d="M228.667,30.375c1.852,0,3.54,0.383,4.575,0.928l0.11-0.11l2.069-8.771
		c0.435-1.744,0.327-2.124-0.981-2.232l-3.269-0.328l0.328-1.251l9.698-1.309l0.273,0.271l-8.608,34.974
		c-0.436,1.744-0.546,2.996,0.545,2.996c1.526,0,3.922-3.866,4.903-5.773l1.308,0.763c-1.852,4.14-4.904,7.845-8.881,7.845
		c-2.777,0.054-3.594-2.18-2.504-6.048l1.796-6.482h-0.108c-3.214,5.83-8.062,12.53-14.327,12.53c-4.412,0-5.449-3.65-5.449-7.192
		C210.144,44.595,215.974,30.375,228.667,30.375z M218.261,55.544c2.889,0,6.483-4.084,9.099-8.334
		c2.778-4.521,4.577-9.642,5.393-13.836c-0.653-0.601-2.07-1.09-3.759-1.09c-8.715,0-13.455,13.454-13.455,19.338
		C215.538,54.075,216.517,55.544,218.261,55.544z"/>
	<path fill="#BBBDBF" d="M246.537,36.587c2.996-3.705,7.027-6.211,11.929-6.211c4.467,0,6.755,2.56,6.755,5.449
		c0,1.524-0.382,3.323-2.288,5.229c-2.342,2.182-6.318,4.358-15.472,6.211c-0.053,0.382-0.053,0.598-0.053,0.871
		c0,4.303,1.144,7.571,4.957,7.571c4.084,0,7.026-3.648,8.989-6.208l1.252,1.088c-3.706,6.048-8.498,7.791-12.475,7.791
		c-3.159,0-8.117-1.308-8.117-8.936C242.015,44.866,243.647,40.128,246.537,36.587z M260.101,35.497
		c0-1.904-1.254-3.212-3.159-3.212c-4.359,0-8.445,6.538-9.371,13.128C256.776,43.45,260.101,39.311,260.101,35.497z"/>
	<path fill="#F1F1F2" d="M280.668,27.038c3.391-5.494,9.762-10.637,20.75-10.637c4.091,0,9.586,0.992,12.917,3.097l-2.102,8.766
		h-1.757c0.293-6.37-2.222-9.819-9.526-9.819c-6.256,0-10.872,3.391-13.794,8.299c-2.806,4.676-4.209,11.166-4.209,16.425
		c0,9.002,4.852,13.386,11.632,13.386c7.188,0,10.172-3.857,13.386-9.702h1.754l-2.864,9.294c-3.741,1.87-7.717,2.453-11.867,2.453
		c-14.494,0-18.294-9.233-18.294-16.949C276.693,37.616,277.454,32.239,280.668,27.038z"/>
	<path fill="#F1F1F2" d="M332.16,28.38c1.579,0,3.273,0.527,4.267,1.229l0.291-0.759h4.912l-6.196,23.321
		c-0.527,1.87-0.583,3.215,0.584,3.215c1.638,0,4.208-4.151,5.259-6.196l1.404,0.817c-1.987,4.443-5.26,8.419-9.703,8.419
		c-3.154,0-3.798-2.396-2.57-6.547l1.986-6.663h-0.117c-3.389,5.962-8.825,13.21-15.08,13.21c-3.973,0-5.609-3.45-5.609-6.954
		C311.587,43.753,318.249,28.38,332.16,28.38z M319.942,55.386c2.808,0,6.371-3.914,9.647-8.886
		c3.096-4.676,5.2-10.461,6.253-14.788c-0.876-0.817-2.162-1.285-3.566-1.285c-9.176,0-14.903,14.436-14.903,20.867
		C317.373,53.574,318.015,55.386,319.942,55.386z"/>
	<path fill="#F1F1F2" d="M351.39,34.52c0.408-1.871,0.525-2.688-0.878-2.807l-3.624-0.292l0.352-1.402l10.053-1.638l0.292,0.293
		l-2.63,9.704h0.116c3.157-6.312,7.189-9.997,10.464-9.997c1.869,0,2.687,0.994,2.631,2.574c0,1.694-1.287,3.623-2.748,3.623
		c-1.871,0-2.28-1.461-4.092-1.461c-2.221,0-5.145,5.028-7.248,12.684c-0.936,3.391-2.046,8.126-3.041,11.925l-5.025,0.702
		L351.39,34.52z"/>
	<path fill="#F1F1F2" d="M386.107,28.38c1.577,0,3.271,0.527,4.267,1.229l0.291-0.759h4.911l-6.197,23.321
		c-0.525,1.87-0.583,3.215,0.586,3.215c1.637,0,4.208-4.151,5.261-6.196l1.402,0.817c-1.988,4.443-5.26,8.419-9.703,8.419
		c-3.154,0-3.799-2.396-2.571-6.547l1.986-6.663h-0.116c-3.391,5.962-8.825,13.21-15.079,13.21c-3.976,0-5.611-3.45-5.611-6.954
		C365.533,43.753,372.195,28.38,386.107,28.38z M373.891,55.386c2.807,0,6.372-3.914,9.646-8.886
		c3.098-4.676,5.201-10.461,6.252-14.788c-0.874-0.817-2.16-1.285-3.564-1.285c-9.177,0-14.903,14.436-14.903,20.867
		C371.32,53.574,371.962,55.386,373.891,55.386z"/>
	<path fill="#F1F1F2" d="M415.565,28.38c4.383,0,7.54,2.221,7.54,5.205c0,1.927-2.34,3.271-3.742,3.271
		c-1.053,0-1.576-0.701-1.696-1.752c-0.351-3.508-1.637-4.676-3.505-4.676c-5.378,0-9.764,9.877-9.764,17.477
		c0,4.15,0.878,7.655,5.146,7.655c3.915,0,7.365-4.148,9.354-6.837l1.401,1.11c-4.032,6.722-9.002,8.593-13.326,8.593
		c-4.093,0-8.359-2.223-8.359-9.353C398.613,39.487,405.16,28.38,415.565,28.38z"/>
	<path fill="#F1F1F2" d="M443.501,28.38c1.581,0,3.274,0.527,4.269,1.229l0.293-0.759h4.909l-6.196,23.321
		c-0.525,1.87-0.586,3.215,0.585,3.215c1.636,0,4.208-4.151,5.261-6.196l1.4,0.817c-1.986,4.443-5.259,8.419-9.7,8.419
		c-3.157,0-3.801-2.396-2.572-6.547l1.987-6.663h-0.117c-3.389,5.962-8.826,13.21-15.082,13.21c-3.973,0-5.609-3.45-5.609-6.954
		C422.928,43.753,429.591,28.38,443.501,28.38z M431.287,55.386c2.804,0,6.37-3.914,9.643-8.886
		c3.099-4.676,5.202-10.461,6.254-14.788c-0.876-0.817-2.162-1.285-3.564-1.285c-9.178,0-14.905,14.436-14.905,20.867
		C428.714,53.574,429.358,55.386,431.287,55.386z"/>
	<path fill="#F1F1F2" d="M457.471,49.715c0.992,0,1.52,0.646,1.87,1.757c0.935,3.094,3.097,4.907,5.261,4.907
		c2.454,0,4.208-1.637,4.208-4.384c0-2.28-1.521-4.852-4.034-6.84c-3.039-2.453-5.143-5.144-5.143-8.183
		c0-4.734,3.508-8.592,9.469-8.592c5.202,0,7.424,2.749,7.424,4.561c0,1.811-1.638,2.688-2.807,2.688
		c-0.875,0-1.345-0.469-1.636-1.168c-1.229-2.749-2.749-4.033-4.678-4.033c-2.163,0-3.624,1.927-3.624,3.798
		c0,1.636,0.644,3.564,4.151,6.431c3.916,3.214,5.378,5.726,5.378,8.941c0,4.793-3.8,8.827-10.112,8.827
		c-5.553,0-8.769-3.04-8.769-5.554C454.43,51.295,455.716,49.715,457.471,49.715z"/>
</g>
</svg>
