<?xml version="1.0" encoding="utf-8"?>
<!-- Generator: Adobe Illustrator 15.0.0, SVG Export Plug-In . SVG Version: 6.00 Build 0)  -->
<!DOCTYPE svg PUBLIC "-//W3C//DTD SVG 1.1//EN" "http://www.w3.org/Graphics/SVG/1.1/DTD/svg11.dtd">
<svg version="1.1" id="Layer_1" xmlns="http://www.w3.org/2000/svg" xmlns:xlink="http://www.w3.org/1999/xlink" x="0px" y="0px"
	 width="280px" height="45px" viewBox="50 15 280 45" enable-background="new 50 15 280 45" xml:space="preserve">
<g>
	<polygon fill="#E6E6E6" points="260.817,21.816 251.646,53.184 311.679,53.184 320.85,21.816 	"/>
	<g>
		<g>
			<path fill="#414141" d="M62.796,28.777c2.687-3.415,6.947-5.526,12.818-5.526c3.225,0,6.256,0.654,8.598,1.92l-1.382,5.986
				h-1.151c0.269-3.301-0.461-6.562-6.103-6.562c-9.172,0-12.204,8.98-12.204,15.123c0,6.793,3.416,9.9,8.059,9.9
				c3.992,0,4.491-0.957,4.76-2.07l1.42-5.797c0.347-1.344,0.077-1.766-0.652-1.842l-2.878-0.268l0.23-1.113h10.094l-0.231,1.113
				l-1.688,0.152c-0.652,0.078-0.883,0.652-1.19,1.957l-1.804,7.754c-2.188,0.807-5.335,1.459-8.138,1.459
				c-3.568,0-6.677-0.883-8.942-2.842c-1.995-1.727-3.261-4.834-3.261-8.674C59.15,36.071,60.263,32.001,62.796,28.777z"/>
			<path fill="#414141" d="M98.031,31.12c1.036,0,2.149,0.346,2.802,0.805l0.191-0.498h3.224l-4.067,15.314
				c-0.346,1.227-0.385,2.111,0.383,2.111c1.075,0,2.764-2.727,3.455-4.068l0.92,0.537c-1.305,2.916-3.453,5.527-6.371,5.527
				c-2.072,0-2.495-1.574-1.688-4.301l1.306-4.373h-0.078c-2.226,3.914-5.794,8.674-9.901,8.674c-2.609,0-3.685-2.266-3.685-4.568
				C84.521,41.213,88.897,31.12,98.031,31.12z M90.01,48.852c1.843,0,4.183-2.572,6.333-5.834c2.033-3.072,3.415-6.872,4.106-9.71
				c-0.576-0.537-1.419-0.845-2.341-0.845c-6.026,0-9.788,9.481-9.788,13.702C88.32,47.662,88.743,48.852,90.01,48.852z"/>
			<path fill="#414141" d="M105.745,47.623c4.146-4.223,8.598-8.674,13.472-13.587h-6.754c-1.804,0-2.418,1.189-3.646,3.416
				l-0.96-0.421c0.844-2.649,2.034-4.761,2.571-5.451h12.474l0.309,0.538c-4.646,4.528-9.021,9.095-13.281,13.546
				c0.998,0.117,2.341,0.615,3.608,1.076c1.419,0.537,3.146,1.111,4.337,1.111c1.727,0,2.648-2.303,3.607-4.682l1.075,0.27
				c-1.037,4.029-2.188,7.408-4.683,7.408c-1.805,0-3.607-0.73-5.642-1.535c-2.265-0.885-3.608-1.766-4.223-1.766
				c-0.306,0-0.499,0.268-0.499,0.689v1.689c0,0.652-1.266,0.922-1.804,0.922c-0.652,0-0.884-0.652-0.884-1.152
				C104.824,49.082,105.132,48.236,105.745,47.623z"/>
			<path fill="#414141" d="M127.125,35.495c2.111-2.609,4.951-4.375,8.405-4.375c3.147,0,4.759,1.803,4.759,3.837
				c0,1.075-0.269,2.342-1.611,3.684c-1.649,1.537-4.451,3.072-10.9,4.377c-0.037,0.27-0.037,0.422-0.037,0.613
				c0,3.031,0.806,5.334,3.492,5.334c2.879,0,4.951-2.57,6.332-4.375l0.885,0.768c-2.609,4.26-5.988,5.49-8.789,5.49
				c-2.226,0-5.719-0.922-5.719-6.297C123.94,41.328,125.091,37.989,127.125,35.495z M136.683,34.727
				c0-1.344-0.885-2.265-2.227-2.265c-3.07,0-5.95,4.605-6.603,9.25C134.34,40.332,136.683,37.414,136.683,34.727z"/>
			<path fill="#414141" d="M146.316,33.039h-3.185l0.422-1.458h3.109l0.498-1.881l3.723-2.956l0.461,0.269l-1.305,4.568h4.875
				l-0.423,1.458h-4.798l-3.416,13.971c-0.23,0.957-0.23,1.842,0.576,1.842c1.189,0,3.146-2.572,4.029-4.068l0.845,0.652
				c-1.536,2.879-3.991,5.412-7.063,5.412c-1.918,0-2.379-1.574-1.804-3.762L146.316,33.039z"/>
			<path fill="#414141" d="M167.004,31.12c1.036,0,2.149,0.346,2.803,0.805l0.19-0.498h3.225l-4.068,15.314
				c-0.346,1.227-0.383,2.111,0.384,2.111c1.075,0,2.763-2.727,3.454-4.068l0.922,0.537c-1.306,2.916-3.455,5.527-6.373,5.527
				c-2.071,0-2.493-1.574-1.688-4.301l1.306-4.373h-0.077c-2.226,3.914-5.795,8.674-9.901,8.674c-2.609,0-3.686-2.266-3.686-4.568
				C153.494,41.213,157.87,31.12,167.004,31.12z M158.983,48.852c1.842,0,4.183-2.572,6.332-5.834
				c2.034-3.072,3.416-6.872,4.106-9.71c-0.575-0.537-1.42-0.845-2.342-0.845c-6.025,0-9.786,9.481-9.786,13.702
				C157.294,47.662,157.716,48.852,158.983,48.852z"/>
		</g>
		<polygon fill="#414141" points="186.438,21.816 177.265,53.184 244.38,53.184 253.551,21.816 		"/>
		<g>
			<path fill="#E6E6E6" d="M201.405,28.211c2.88,0,4.952,1.459,4.952,3.416c0,1.268-1.535,2.15-2.457,2.15
				c-0.691,0-1.036-0.461-1.112-1.151c-0.23-2.303-1.075-3.071-2.303-3.071c-3.532,0-6.41,6.486-6.41,11.476
				c0,2.725,0.576,5.029,3.378,5.029c2.572,0,4.835-2.727,6.141-4.492l0.922,0.729c-2.648,4.414-5.911,5.643-8.751,5.643
				c-2.688,0-5.488-1.459-5.488-6.141C190.275,35.504,194.575,28.211,201.405,28.211z"/>
			<path fill="#E6E6E6" d="M219.292,28.211c2.879,0,4.951,1.459,4.951,3.416c0,1.268-1.534,2.15-2.456,2.15
				c-0.691,0-1.036-0.461-1.112-1.151c-0.23-2.303-1.075-3.071-2.303-3.071c-3.532,0-6.41,6.486-6.41,11.476
				c0,2.725,0.575,5.029,3.378,5.029c2.572,0,4.836-2.727,6.141-4.492l0.921,0.729c-2.647,4.414-5.91,5.643-8.752,5.643
				c-2.687,0-5.487-1.459-5.487-6.141C208.162,35.504,212.46,28.211,219.292,28.211z"/>
			<path fill="#E6E6E6" d="M227.008,42.223c0.651,0,0.997,0.422,1.229,1.15c0.613,2.035,2.033,3.225,3.453,3.225
				c1.612,0,2.764-1.076,2.764-2.881c0-1.496-0.998-3.184-2.648-4.488c-1.996-1.613-3.377-3.378-3.377-5.375
				c0-3.108,2.304-5.643,6.216-5.643c3.417,0,4.876,1.806,4.876,2.995s-1.076,1.766-1.843,1.766c-0.575,0-0.884-0.308-1.075-0.769
				c-0.806-1.804-1.804-2.648-3.07-2.648c-1.42,0-2.38,1.268-2.38,2.495c0,1.075,0.423,2.341,2.727,4.223
				c2.57,2.112,3.529,3.76,3.529,5.872c0,3.146-2.494,5.795-6.64,5.795c-3.646,0-5.756-1.994-5.756-3.645
				C225.012,43.258,225.856,42.223,227.008,42.223z"/>
		</g>
	</g>
	<g>
		<path fill="#414141" d="M270.513,28.392h16.104l-1.077,4.735h-0.851c0.255-2.552,0.283-3.743-3.231-3.743h-1.786l-3.686,16.331
			c-0.199,0.879-0.058,1.305,0.736,1.361l2.07,0.113l-0.199,0.822h-8.731l0.198-0.822l1.843-0.113
			c0.851-0.057,1.162-0.482,1.36-1.361l3.687-16.331h-1.957c-2.778,0-3.799,0.851-4.706,3.743h-0.851L270.513,28.392z"/>
		<path fill="#414141" d="M286.307,28.392h7.088l-0.142,0.822l-1.814,0.17c-0.511,0.058-0.539,0.397-0.482,0.937
			c0.228,2.353,0.511,4.819,0.851,7.314l0.992,7.541h0.057l4.055-7.059c2.382-4.139,3.742-6.606,4.338-7.882
			c0.312-0.651,0.17-0.822-0.341-0.879l-1.559-0.142l0.142-0.822h6.237l-0.143,0.822c-1.502,0.113-1.956,0.284-2.579,1.248
			c-1.135,1.758-2.864,4.621-4.707,7.768l-5.755,9.781h-1.956l-1.19-9.072c-0.369-2.835-0.709-5.642-1.049-8.25
			c-0.143-1.021-0.397-1.247-1.05-1.333l-1.134-0.142L286.307,28.392z"/>
	</g>
</g>
</svg>
