<?xml version="1.0" encoding="utf-8"?>
<!-- Generator: Adobe Illustrator 15.0.0, SVG Export Plug-In . SVG Version: 6.00 Build 0)  -->
<!DOCTYPE svg PUBLIC "-//W3C//DTD SVG 1.1//EN" "http://www.w3.org/Graphics/SVG/1.1/DTD/svg11.dtd">
<svg version="1.1" id="Layer_1" xmlns="http://www.w3.org/2000/svg" xmlns:xlink="http://www.w3.org/1999/xlink" x="0px" y="0px"
	 width="280px" height="45px" viewBox="50 15 280 45" enable-background="new 50 15 280 45" xml:space="preserve">
<g>
	<polygon fill="#E6E6E6" points="66.894,20.012 56.667,54.988 313.107,54.988 323.332,20.012 	"/>
	<g>
		<path fill="#414141" d="M144.302,45.347l1.523-0.167c0.665-0.055,0.941-0.388,1.163-1.329l3.323-14.567
			c0.222-0.913,0.028-1.302-0.609-1.356l-1.634-0.139l0.194-0.803h6.48c1.828,0,3.6,0.249,4.902,0.996
			c1.357,0.776,2.243,2.216,2.243,4.1c0,2.077-1.024,3.933-2.797,5.013c-1.579,0.969-3.794,1.301-6.148,1.301h-2.049l-1.246,5.456
			c-0.194,0.887-0.056,1.274,0.609,1.329l1.911,0.167l-0.166,0.803h-7.865L144.302,45.347z M153.026,37.426
			c3.739,0,5.955-1.883,5.955-5.844c0-2.354-1.413-3.628-4.154-3.628c-1.412,0-1.606,0.249-1.772,0.97l-1.689,7.339
			C151.17,37.148,151.115,37.426,153.026,37.426z"/>
		<path fill="#414141" d="M169.557,32.247c2.243,0,4.957,1.024,4.957,4.847c0,1.495-0.471,3.849-1.745,5.843
			c-1.302,2.05-3.24,3.545-6.259,3.545c-3.49,0-5.096-2.049-5.096-5.013C161.415,39.087,162.993,32.247,169.557,32.247z
			 M166.594,45.513c3.794,0,5.234-7.423,5.234-9.389c0-1.717-0.609-2.908-2.299-2.908c-3.656,0-5.428,6.37-5.428,9.361
			C164.101,44.543,164.987,45.513,166.594,45.513z"/>
		<path fill="#414141" d="M180.687,28.453c0.277-1.08,0.138-1.274-0.554-1.357l-1.579-0.194l0.167-0.637l4.957-0.664l0.139,0.138
			l-4.459,17.808c-0.221,0.914-0.221,1.496,0.277,1.496c0.665,0,1.911-1.689,2.548-2.936l0.665,0.388
			c-0.886,2.077-2.576,3.987-4.514,3.987c-1.496,0-1.828-1.135-1.44-2.714L180.687,28.453z"/>
		<path fill="#414141" d="M187.526,35.1c0.249-0.97,0.166-1.219-0.582-1.274l-1.579-0.138l0.166-0.665l5.04-0.775l0.139,0.139
			l-3.019,11.133c-0.25,0.886-0.277,1.523,0.277,1.523c0.775,0,1.994-1.967,2.493-2.936l0.665,0.388
			c-0.942,2.104-2.493,3.987-4.487,3.987c-1.496,0-1.856-1.135-1.44-2.714L187.526,35.1z M190.518,27.262
			c0.83-0.858,1.301-1.136,1.771-1.136c0.416,0,1.08,0.638,1.08,1.191c0,0.581-0.719,1.053-1.551,1.495l-4.181,2.326l-0.416-0.554
			L190.518,27.262z"/>
		<path fill="#414141" d="M196.332,33.632h-2.299l0.305-1.053h2.242l0.359-1.356l2.688-2.133l0.332,0.193l-0.941,3.296h3.518
			l-0.305,1.053h-3.463l-2.465,10.08c-0.166,0.692-0.166,1.33,0.416,1.33c0.859,0,2.271-1.855,2.908-2.936l0.609,0.471
			c-1.107,2.077-2.881,3.904-5.096,3.904c-1.385,0-1.717-1.135-1.303-2.714L196.332,33.632z"/>
		<path fill="#414141" d="M205.191,35.1c0.25-0.97,0.166-1.219-0.582-1.274l-1.578-0.138l0.166-0.665l5.041-0.775l0.139,0.139
			l-3.02,11.133c-0.25,0.886-0.277,1.523,0.277,1.523c0.775,0,1.994-1.967,2.492-2.936l0.664,0.388
			c-0.941,2.104-2.492,3.987-4.486,3.987c-1.494,0-1.855-1.135-1.439-2.714L205.191,35.1z M208.1,26.348
			c0.775,0,1.494,0.443,1.494,1.523c0,1.107-0.691,1.855-1.771,1.855c-0.83,0-1.523-0.526-1.523-1.551
			C206.299,27.29,206.908,26.348,208.1,26.348z"/>
		<path fill="#414141" d="M218.316,32.247c2.076,0,3.572,1.052,3.572,2.465c0,0.914-1.107,1.551-1.771,1.551
			c-0.5,0-0.748-0.332-0.805-0.831c-0.166-1.661-0.775-2.216-1.66-2.216c-2.549,0-4.625,4.681-4.625,8.281
			c0,1.966,0.414,3.628,2.436,3.628c1.855,0,3.49-1.967,4.432-3.24l0.664,0.525c-1.91,3.186-4.264,4.071-6.312,4.071
			c-1.939,0-3.961-1.052-3.961-4.431C210.285,37.509,213.387,32.247,218.316,32.247z"/>
		<path fill="#414141" d="M231.553,32.247c0.748,0,1.551,0.249,2.021,0.581l0.139-0.359h2.326l-2.936,11.05
			c-0.25,0.886-0.277,1.523,0.277,1.523c0.775,0,1.994-1.967,2.492-2.936l0.664,0.388c-0.941,2.104-2.492,3.987-4.598,3.987
			c-1.494,0-1.799-1.135-1.219-3.102l0.943-3.157h-0.057c-1.605,2.825-4.182,6.259-7.145,6.259c-1.883,0-2.658-1.634-2.658-3.295
			C221.805,39.53,224.961,32.247,231.553,32.247z M225.764,45.042c1.33,0,3.02-1.855,4.57-4.21c1.467-2.216,2.465-4.957,2.963-7.007
			c-0.416-0.388-1.023-0.609-1.689-0.609c-4.348,0-7.062,6.841-7.062,9.887C224.545,44.183,224.85,45.042,225.764,45.042z"/>
	</g>
</g>
</svg>
