<?xml version="1.0" encoding="utf-8"?>
<!-- Generator: Adobe Illustrator 15.0.0, SVG Export Plug-In . SVG Version: 6.00 Build 0)  -->
<!DOCTYPE svg PUBLIC "-//W3C//DTD SVG 1.1//EN" "http://www.w3.org/Graphics/SVG/1.1/DTD/svg11.dtd">
<svg version="1.1" id="Layer_1" xmlns="http://www.w3.org/2000/svg" xmlns:xlink="http://www.w3.org/1999/xlink" x="0px" y="0px"
	 width="266.632px" height="75px" viewBox="56.271 0 266.632 75" enable-background="new 56.271 0 266.632 75" xml:space="preserve"
	>
<g>
	<g>
		<path fill="#404041" d="M78.167,21.881c4.915-6.251,12.709-10.111,23.452-10.111c5.898,0,11.445,1.193,15.729,3.51l-2.527,10.955
			h-2.106c0.49-6.041-0.843-12.01-11.165-12.01c-16.782,0-22.329,16.432-22.329,27.667c0,12.428,6.249,18.116,14.746,18.116
			c7.302,0,8.215-1.756,8.706-3.791l2.599-10.604c0.632-2.456,0.14-3.229-1.194-3.37l-5.266-0.49l0.422-2.036h18.466l-0.421,2.036
			l-3.089,0.28c-1.194,0.14-1.615,1.194-2.177,3.58l-3.301,14.185c-4.002,1.475-9.76,2.669-14.885,2.669
			c-6.531,0-12.218-1.615-16.361-5.197c-3.651-3.159-5.968-8.848-5.968-15.867C71.497,35.223,73.532,27.779,78.167,21.881z"/>
		<path fill="#404041" d="M158.762,15.279H145.07c-7.795,0-10.112,1.264-12.991,9.408h-2.105l2.597-11.864h35.67l0.351,0.911
			C154.76,28.9,140.927,44.138,127.585,58.953h14.254c11.095,0,14.114-1.262,17.835-9.898h2.106L158.2,61.412h-40.093l-0.282-0.914
			C131.659,45.332,145.421,30.096,158.762,15.279z"/>
	</g>
	<polygon fill="#404041" points="184.374,7.381 167.274,65.863 292.401,65.863 309.498,7.381 	"/>
	<g>
		<path fill="#F1F1F2" d="M212.287,19c5.366,0,9.231,2.72,9.231,6.37c0,2.362-2.863,4.008-4.58,4.008
			c-1.288,0-1.933-0.86-2.075-2.147c-0.431-4.293-2.003-5.726-4.293-5.726c-6.586,0-11.953,12.096-11.953,21.398
			c0,5.081,1.074,9.376,6.298,9.376c4.795,0,9.018-5.08,11.45-8.373l1.718,1.36c-4.938,8.228-11.021,10.519-16.316,10.519
			c-5.01,0-10.235-2.719-10.235-11.451C191.531,32.598,199.547,19,212.287,19z"/>
		<path fill="#F1F1F2" d="M245.635,19c5.366,0,9.231,2.72,9.231,6.37c0,2.362-2.863,4.008-4.581,4.008
			c-1.287,0-1.933-0.86-2.075-2.147c-0.43-4.293-2.002-5.726-4.292-5.726c-6.586,0-11.954,12.096-11.954,21.398
			c0,5.081,1.075,9.376,6.298,9.376c4.796,0,9.019-5.08,11.451-8.373l1.718,1.36c-4.938,8.228-11.021,10.519-16.316,10.519
			c-5.01,0-10.235-2.719-10.235-11.451C224.879,32.598,232.895,19,245.635,19z"/>
		<path fill="#F1F1F2" d="M260.017,45.121c1.218,0,1.86,0.788,2.29,2.147c1.145,3.793,3.793,6.014,6.44,6.014
			c3.005,0,5.153-2.006,5.153-5.368c0-2.793-1.86-5.94-4.938-8.373c-3.72-3.008-6.298-6.298-6.298-10.021
			c0-5.798,4.295-10.521,11.594-10.521c6.37,0,9.09,3.365,9.09,5.582c0,2.219-2.005,3.293-3.435,3.293
			c-1.075,0-1.647-0.572-2.005-1.433c-1.503-3.362-3.363-4.938-5.726-4.938c-2.648,0-4.438,2.362-4.438,4.652
			c0,2.003,0.788,4.366,5.083,7.871c4.796,3.938,6.583,7.016,6.583,10.95c0,5.868-4.65,10.807-12.381,10.807
			c-6.798,0-10.735-3.721-10.735-6.799C256.294,47.054,257.869,45.121,260.017,45.121z"/>
	</g>
</g>
</svg>
