<?xml version="1.0" encoding="utf-8"?>
<!-- Generator: Adobe Illustrator 15.0.0, SVG Export Plug-In . SVG Version: 6.00 Build 0)  -->
<!DOCTYPE svg PUBLIC "-//W3C//DTD SVG 1.1//EN" "http://www.w3.org/Graphics/SVG/1.1/DTD/svg11.dtd">
<svg version="1.1" id="Layer_1" xmlns="http://www.w3.org/2000/svg" xmlns:xlink="http://www.w3.org/1999/xlink" x="0px" y="0px"
	 width="370px" height="45px" viewBox="5 15 370 45" enable-background="new 5 15 370 45" xml:space="preserve">
<g>
	<polygon fill="#E6E6E6" points="231.988,21.816 222.816,53.184 340.508,53.184 349.678,21.816 	"/>
	<g>
		<g>
			<path fill="#414141" d="M33.967,28.778c2.687-3.415,6.947-5.526,12.818-5.526c3.225,0,6.256,0.653,8.598,1.92l-1.382,5.986H52.85
				c0.269-3.301-0.461-6.563-6.103-6.563c-9.172,0-12.204,8.981-12.204,15.123c0,6.793,3.416,9.902,8.059,9.902
				c3.992,0,4.491-0.959,4.76-2.072l1.42-5.797c0.347-1.342,0.077-1.766-0.652-1.842l-2.878-0.268l0.23-1.113h10.094l-0.231,1.113
				l-1.688,0.152c-0.652,0.078-0.883,0.652-1.19,1.957l-1.804,7.756c-2.188,0.805-5.335,1.457-8.138,1.457
				c-3.568,0-6.677-0.883-8.942-2.84c-1.995-1.727-3.261-4.836-3.261-8.676C30.322,36.071,31.434,32.002,33.967,28.778z"/>
			<path fill="#414141" d="M69.203,31.12c1.036,0,2.149,0.346,2.802,0.806l0.191-0.499h3.224L71.352,46.74
				c-0.346,1.229-0.385,2.111,0.383,2.111c1.075,0,2.764-2.725,3.455-4.068l0.92,0.537c-1.305,2.918-3.453,5.527-6.371,5.527
				c-2.072,0-2.495-1.574-1.688-4.301l1.306-4.373h-0.078c-2.226,3.914-5.794,8.674-9.901,8.674c-2.609,0-3.685-2.266-3.685-4.566
				C55.692,41.215,60.069,31.12,69.203,31.12z M61.181,48.852c1.843,0,4.183-2.57,6.333-5.834c2.033-3.07,3.415-6.871,4.106-9.709
				c-0.576-0.538-1.419-0.845-2.341-0.845c-6.026,0-9.788,9.48-9.788,13.701C59.492,47.662,59.915,48.852,61.181,48.852z"/>
			<path fill="#414141" d="M76.917,47.623c4.146-4.223,8.598-8.674,13.472-13.586h-6.754c-1.804,0-2.418,1.189-3.646,3.416
				l-0.96-0.422c0.844-2.648,2.034-4.76,2.571-5.451h12.474l0.309,0.538c-4.646,4.528-9.021,9.095-13.281,13.548
				c0.998,0.115,2.341,0.613,3.608,1.074c1.419,0.537,3.146,1.113,4.337,1.113c1.727,0,2.648-2.303,3.607-4.682l1.075,0.268
				c-1.037,4.029-2.188,7.408-4.683,7.408c-1.805,0-3.607-0.73-5.642-1.535c-2.265-0.883-3.608-1.766-4.223-1.766
				c-0.306,0-0.499,0.268-0.499,0.691v1.688c0,0.652-1.266,0.922-1.804,0.922c-0.652,0-0.884-0.652-0.884-1.15
				C75.996,49.082,76.303,48.238,76.917,47.623z"/>
			<path fill="#414141" d="M98.296,35.496c2.111-2.61,4.951-4.376,8.405-4.376c3.147,0,4.759,1.804,4.759,3.838
				c0,1.074-0.269,2.341-1.611,3.685c-1.649,1.535-4.451,3.07-10.9,4.375c-0.037,0.27-0.037,0.422-0.037,0.613
				c0,3.033,0.806,5.336,3.492,5.336c2.879,0,4.951-2.572,6.332-4.377l0.885,0.77c-2.609,4.26-5.988,5.488-8.789,5.488
				c-2.226,0-5.719-0.922-5.719-6.295C95.112,41.328,96.262,37.99,98.296,35.496z M107.854,34.727c0-1.343-0.885-2.264-2.227-2.264
				c-3.07,0-5.95,4.605-6.603,9.25C105.511,40.332,107.854,37.415,107.854,34.727z"/>
			<path fill="#414141" d="M117.488,33.039h-3.185l0.422-1.458h3.109l0.498-1.88l3.723-2.956l0.461,0.269l-1.305,4.567h4.875
				l-0.423,1.458h-4.798L117.45,47.01c-0.23,0.959-0.23,1.842,0.576,1.842c1.189,0,3.146-2.57,4.029-4.068l0.845,0.652
				c-1.536,2.879-3.991,5.412-7.063,5.412c-1.918,0-2.379-1.574-1.804-3.762L117.488,33.039z"/>
			<path fill="#414141" d="M138.175,31.12c1.036,0,2.149,0.346,2.803,0.806l0.19-0.499h3.225l-4.068,15.314
				c-0.346,1.229-0.383,2.111,0.384,2.111c1.075,0,2.763-2.725,3.454-4.068l0.922,0.537c-1.306,2.918-3.455,5.527-6.373,5.527
				c-2.071,0-2.493-1.574-1.688-4.301l1.306-4.373h-0.077c-2.226,3.914-5.795,8.674-9.901,8.674c-2.609,0-3.686-2.266-3.686-4.566
				C124.666,41.215,129.042,31.12,138.175,31.12z M130.155,48.852c1.842,0,4.183-2.57,6.332-5.834
				c2.034-3.07,3.416-6.871,4.106-9.709c-0.575-0.538-1.42-0.845-2.342-0.845c-6.025,0-9.786,9.48-9.786,13.701
				C128.465,47.662,128.887,48.852,130.155,48.852z"/>
		</g>
		<polygon fill="#414141" points="157.609,21.816 148.436,53.184 215.551,53.184 224.723,21.816 		"/>
		<g>
			<path fill="#E6E6E6" d="M172.577,28.212c2.88,0,4.952,1.458,4.952,3.416c0,1.267-1.535,2.149-2.457,2.149
				c-0.691,0-1.036-0.461-1.112-1.15c-0.23-2.303-1.075-3.072-2.303-3.072c-3.532,0-6.41,6.487-6.41,11.478
				c0,2.723,0.576,5.027,3.378,5.027c2.572,0,4.835-2.727,6.141-4.492l0.922,0.729c-2.648,4.414-5.911,5.643-8.751,5.643
				c-2.688,0-5.488-1.457-5.488-6.141C161.447,35.505,165.747,28.212,172.577,28.212z"/>
			<path fill="#E6E6E6" d="M190.463,28.212c2.878,0,4.951,1.458,4.951,3.416c0,1.267-1.533,2.149-2.455,2.149
				c-0.691,0-1.037-0.461-1.113-1.15c-0.23-2.303-1.074-3.072-2.302-3.072c-3.532,0-6.41,6.487-6.41,11.478
				c0,2.723,0.575,5.027,3.378,5.027c2.572,0,4.836-2.727,6.141-4.492l0.92,0.729c-2.646,4.414-5.91,5.643-8.751,5.643
				c-2.687,0-5.487-1.457-5.487-6.141C179.333,35.505,183.631,28.212,190.463,28.212z"/>
			<path fill="#E6E6E6" d="M198.18,42.223c0.65,0,0.996,0.422,1.229,1.15c0.613,2.035,2.033,3.225,3.453,3.225
				c1.611,0,2.764-1.076,2.764-2.879c0-1.496-0.998-3.186-2.648-4.49c-1.996-1.612-3.377-3.378-3.377-5.374
				c0-3.109,2.303-5.643,6.215-5.643c3.418,0,4.877,1.805,4.877,2.994s-1.076,1.766-1.844,1.766c-0.574,0-0.883-0.307-1.074-0.768
				c-0.807-1.805-1.805-2.649-3.07-2.649c-1.42,0-2.381,1.268-2.381,2.495c0,1.075,0.424,2.342,2.727,4.223
				c2.57,2.112,3.529,3.762,3.529,5.874c0,3.146-2.494,5.795-6.639,5.795c-3.646,0-5.756-1.996-5.756-3.646
				C196.184,43.258,197.027,42.223,198.18,42.223z"/>
		</g>
	</g>
	<g>
		<path fill="#414141" d="M239.416,40.774h0.822c-0.17,3.77,2.098,5.67,4.707,5.67c2.834,0,4.281-2.098,4.281-4.111
			c0-2.268-1.361-3.459-3.629-4.591c-2.297-1.106-4.111-2.496-4.111-5.161c0-2.382,1.559-5.613,6.52-5.613
			c1.758,0,3.857,0.481,5.076,1.446l-1.021,3.969h-0.822c0.34-2.92-0.709-4.423-3.43-4.423c-2.467,0-3.941,1.588-3.941,3.601
			c0,2.154,2.014,3.118,3.658,3.969c2.863,1.474,4.252,3.091,4.252,5.642c0,3.033-1.672,6.209-7.172,6.266
			c-2.07,0-4.82-0.85-5.926-2.324L239.416,40.774z"/>
		<path fill="#414141" d="M254.785,33.573l5.16-0.794l0.141,0.142l-2.721,10.461c-0.426,1.645-0.199,2.496,0.709,2.496
			c2.352,0,4.818-3.771,6.066-6.635c0.736-1.728,1.191-3.231,2.014-6.123l2.521-0.341l-3.033,11.567
			c-0.227,0.879-0.227,1.531,0.369,1.531c0.793,0,2.041-2.043,2.607-3.006l0.682,0.426c-0.992,2.098-2.693,4.053-4.734,4.053
			c-1.504,0-1.844-1.162-1.305-3.061l0.936-3.232h-0.057c-1.701,3.289-4.678,6.293-7.4,6.293c-2.268,0-2.494-1.842-1.898-4.109
			l1.955-7.484c0.229-0.879,0.256-1.305-0.424-1.361l-1.758-0.142L254.785,33.573z"/>
		<path fill="#414141" d="M278.801,32.779c2.127,0,3.658,1.078,3.658,2.523c0,0.936-1.135,1.588-1.814,1.588
			c-0.512,0-0.766-0.341-0.822-0.851c-0.17-1.701-0.795-2.269-1.701-2.269c-2.609,0-4.734,4.792-4.734,8.478
			c0,2.012,0.424,3.713,2.494,3.713c1.898,0,3.572-2.012,4.535-3.316l0.682,0.539c-1.957,3.26-4.367,4.166-6.465,4.166
			c-1.984,0-4.053-1.076-4.053-4.535C270.58,38.165,273.754,32.779,278.801,32.779z"/>
		<path fill="#414141" d="M285.125,36.012c1.559-1.928,3.656-3.232,6.209-3.232c2.324,0,3.516,1.333,3.516,2.835
			c0,0.794-0.199,1.729-1.191,2.721c-1.219,1.135-3.289,2.27-8.051,3.232c-0.029,0.199-0.029,0.312-0.029,0.453
			c0,2.24,0.596,3.941,2.58,3.941c2.127,0,3.656-1.898,4.678-3.232l0.652,0.568c-1.928,3.146-4.424,4.053-6.492,4.053
			c-1.645,0-4.225-0.68-4.225-4.648C282.771,40.321,283.621,37.855,285.125,36.012z M292.184,35.444
			c0-0.992-0.652-1.673-1.645-1.673c-2.268,0-4.395,3.402-4.875,6.833C290.455,39.583,292.184,37.429,292.184,35.444z"/>
		<path fill="#414141" d="M296.068,43.128c0.482,0,0.738,0.311,0.908,0.85c0.453,1.502,1.502,2.381,2.551,2.381
			c1.191,0,2.041-0.793,2.041-2.125c0-1.105-0.736-2.354-1.955-3.318c-1.475-1.189-2.496-2.494-2.496-3.968
			c0-2.297,1.701-4.168,4.594-4.168c2.523,0,3.6,1.333,3.6,2.212s-0.793,1.304-1.359,1.304c-0.426,0-0.652-0.227-0.795-0.566
			c-0.596-1.333-1.332-1.957-2.268-1.957c-1.049,0-1.758,0.936-1.758,1.843c0,0.794,0.312,1.729,2.014,3.119
			c1.898,1.559,2.607,2.777,2.607,4.338c0,2.324-1.842,4.279-4.904,4.279c-2.693,0-4.252-1.473-4.252-2.693
			C294.596,43.894,295.219,43.128,296.068,43.128z"/>
		<path fill="#414141" d="M314.527,32.779c2.297,0,5.074,1.049,5.074,4.962c0,1.529-0.48,3.939-1.785,5.98
			c-1.332,2.1-3.316,3.629-6.408,3.629c-3.572,0-5.215-2.098-5.215-5.131C306.193,39.782,307.809,32.779,314.527,32.779z
			 M311.494,46.358c3.885,0,5.357-7.598,5.357-9.609c0-1.758-0.623-2.978-2.352-2.978c-3.742,0-5.557,6.521-5.557,9.583
			C308.943,45.366,309.85,46.358,311.494,46.358z"/>
		<path fill="#414141" d="M321.758,43.128c0.482,0,0.738,0.311,0.908,0.85c0.453,1.502,1.502,2.381,2.551,2.381
			c1.191,0,2.041-0.793,2.041-2.125c0-1.105-0.736-2.354-1.955-3.318c-1.475-1.189-2.496-2.494-2.496-3.968
			c0-2.297,1.701-4.168,4.594-4.168c2.523,0,3.6,1.333,3.6,2.212s-0.793,1.304-1.359,1.304c-0.426,0-0.652-0.227-0.795-0.566
			c-0.596-1.333-1.332-1.957-2.268-1.957c-1.049,0-1.758,0.936-1.758,1.843c0,0.794,0.312,1.729,2.014,3.119
			c1.898,1.559,2.607,2.777,2.607,4.338c0,2.324-1.842,4.279-4.904,4.279c-2.693,0-4.252-1.473-4.252-2.693
			C320.285,43.894,320.908,43.128,321.758,43.128z"/>
	</g>
</g>
</svg>
